<svg width="10" height="6" viewBox="0 0 10 6" fill="none" xmlns="http://www.w3.org/2000/svg">
<path d="M5.15364 5.81563C5.07369 5.91158 4.92631 5.91158 4.84636 5.81563L0.273364 0.328036C0.164809 0.197771 0.257441 2.33891e-08 0.427008 3.87947e-08L9.57299 8.6973e-07C9.74256 8.85135e-07 9.83519 0.197772 9.72664 0.328038L5.15364 5.81563Z" fill="#D60000"/>
</svg>
