<svg width="30" height="32" viewBox="0 0 30 32" fill="none" xmlns="http://www.w3.org/2000/svg">
<path d="M26.1409 27.9068C26.1287 27.9068 26.117 27.9068 26.1047 27.9062C25.5617 27.8971 25.0512 27.6645 24.6675 27.2523L8.34142 9.7236C8.1587 9.52692 8.16384 9.22135 8.35368 9.03179L10.8661 6.51967C11.0554 6.32983 11.3612 6.32412 11.5576 6.50741L29.0866 22.8332C29.4985 23.2172 29.7305 23.7274 29.7402 24.2704C29.751 24.8687 29.5016 25.4537 29.0384 25.9166L27.7503 27.2044C27.2968 27.6582 26.7267 27.9068 26.1409 27.9068ZM9.39838 9.39608L25.3964 26.5733C25.5973 26.7888 25.8482 26.9057 26.1227 26.9105C26.4394 26.904 26.7794 26.7666 27.0459 26.5001L28.3344 25.2125C28.6009 24.946 28.7502 24.6091 28.7443 24.2881C28.7394 24.0142 28.6231 23.7633 28.4076 23.5624L11.2304 7.56408L9.39838 9.39608ZM26.4354 25.8177C26.1158 25.8177 25.7963 25.6962 25.5529 25.4528C25.0663 24.9662 25.0663 24.1744 25.5529 23.6878C26.0392 23.2015 26.8313 23.2015 27.3179 23.6878C27.8042 24.1744 27.8042 24.9662 27.3179 25.4528C27.0745 25.6962 26.7549 25.8177 26.4354 25.8177ZM26.4354 24.3189C26.3707 24.3189 26.3063 24.3434 26.2572 24.3924C26.1589 24.4908 26.1589 24.6504 26.2572 24.7487C26.3556 24.8471 26.5149 24.8471 26.6135 24.7487C26.7119 24.6504 26.7119 24.4908 26.6135 24.3924C26.5642 24.3431 26.5001 24.3189 26.4354 24.3189V24.3189Z" />
<path d="M5.49322 14.3205C5.036 14.3205 4.5728 14.1418 4.21734 13.7866L1.06814 10.6374C0.736344 10.3059 0.546502 9.87065 0.53396 9.41144C0.520278 8.94139 0.692447 8.50327 1.01826 8.17718L1.94551 7.24992C2.27161 6.92383 2.70004 6.7585 3.17977 6.76534C3.63898 6.77817 4.07453 6.96801 4.40576 7.29952L7.55525 10.4487C8.24706 11.1408 8.26958 12.2448 7.60485 12.909L6.67702 13.8368C6.35377 14.1598 5.92677 14.3205 5.49322 14.3205ZM3.13017 7.76073C2.94546 7.76073 2.77557 7.82914 2.65015 7.95427L1.72261 8.88153C1.59291 9.01123 1.52421 9.18995 1.52963 9.38322C1.53533 9.58703 1.6217 9.78228 1.77249 9.93279L4.9217 13.0826C5.2247 13.3861 5.69702 13.4081 5.97295 13.1322L6.90078 12.2043C7.17642 11.9284 7.15447 11.4567 6.85118 11.1528L3.70141 8.00416C3.55062 7.85337 3.35536 7.76728 3.15155 7.7613C3.14442 7.76073 3.1373 7.76073 3.13017 7.76073Z" />
<path d="M7.18551 11.324C7.05239 11.324 6.92497 11.2705 6.83091 11.1755L3.39837 7.69853C3.21023 7.50783 3.20653 7.20197 3.39067 7.007L8.85075 1.21911C9.84699 0.163581 11.3375 -0.254299 12.6456 0.154745C13.5364 0.432666 14.2789 1.03326 14.8527 1.94028C14.9767 2.13611 14.9496 2.39151 14.7866 2.55655L13.4052 3.95585C13.2941 4.06902 13.1379 4.12204 12.9788 4.09866C12.822 4.07586 12.6852 3.9798 12.6108 3.83984C12.6094 3.83756 12.3147 3.32048 11.9187 3.2954C11.6838 3.29055 11.3766 3.4613 11.0627 3.81247L12.5909 5.35914C12.7821 5.55297 12.7821 5.86539 12.5909 6.05922L7.54011 11.1755C7.44632 11.2705 7.31891 11.324 7.18551 11.324ZM4.44534 7.34108L7.18551 10.1166L11.5368 5.70975L10.0437 4.19871C9.87293 4.02569 9.85213 3.75432 9.99465 3.55679C10.6306 2.67684 11.307 2.26495 11.9903 2.30201C12.4763 2.33564 12.8468 2.59361 13.0985 2.8493L13.7869 2.15207C13.3836 1.62958 12.9016 1.2784 12.3494 1.10566C11.4008 0.810354 10.3125 1.12277 9.57591 1.90351L4.44534 7.34108Z" />
<path d="M4.31955 32.0001H4.07384C3.81815 32.0001 3.60693 31.7997 3.59325 31.5443L3.22782 24.57C3.22098 24.4383 3.26858 24.3092 3.35894 24.2134C3.44987 24.1174 3.57643 24.0635 3.70841 24.0635H4.68441C4.8161 24.0635 4.94266 24.1174 5.03359 24.2134C5.12395 24.3092 5.17184 24.438 5.165 24.57L4.79985 31.5443C4.78646 31.7997 4.57524 32.0001 4.31955 32.0001Z" />
<path d="M7.10926 25.0427H1.56338C0.894945 25.0427 0.351074 24.4986 0.351074 23.8304V23.266C0.351074 22.5973 0.894945 22.0537 1.56338 22.0537H7.10926C7.7777 22.0537 8.32157 22.5976 8.32157 23.266V23.8304C8.32157 24.4986 7.7777 25.0427 7.10926 25.0427ZM1.56338 23.0499C1.44395 23.0499 1.34732 23.1469 1.34732 23.266V23.8304C1.34732 23.9496 1.44423 24.0462 1.56338 24.0462H7.10926C7.2287 24.0462 7.32533 23.9493 7.32533 23.8304V23.266C7.32533 23.1466 7.22841 23.0499 7.10926 23.0499H1.56338Z" />
<path d="M2.67601 20.9742C2.52294 20.9742 2.3713 20.9035 2.27381 20.7709L0.628519 18.5291C0.466042 18.3073 0.513645 17.9955 0.735696 17.8324C0.958033 17.6705 1.26902 17.7178 1.43235 17.9396L3.07764 20.1812C3.23983 20.4032 3.19223 20.7151 2.97046 20.8778C2.88124 20.9425 2.77806 20.9742 2.67601 20.9742V20.9742Z" />
<path d="M6.21366 20.9742C6.11161 20.9742 6.00843 20.9431 5.91921 20.8779C5.69744 20.7148 5.64984 20.403 5.81203 20.1812L7.45703 17.9393C7.6198 17.7178 7.93135 17.6694 8.15369 17.8324C8.37574 17.9952 8.42334 18.307 8.26087 18.5291L6.61586 20.7707C6.51838 20.9035 6.36702 20.9742 6.21366 20.9742Z" />
<path d="M4.33847 20.5593C4.06312 20.5593 3.84021 20.3364 3.84021 20.061V18.0686C3.84021 17.7932 4.06312 17.5703 4.33847 17.5703C4.61383 17.5703 4.83674 17.7932 4.83674 18.0686V20.061C4.83674 20.3364 4.61383 20.5593 4.33847 20.5593Z" />
</svg>
