<svg width="32" height="26" viewBox="0 0 32 26" fill="none" xmlns="http://www.w3.org/2000/svg">
<path d="M12.0728 8.08194H3.29193C1.47672 8.08194 0 6.60491 0 4.79001V3.69134C0 1.87645 1.47672 0.399414 3.29193 0.399414H12.0731C13.8883 0.399414 15.365 1.87645 15.365 3.69134V4.79001C15.365 6.60491 13.8883 8.08194 12.0728 8.08194ZM3.29193 1.49683C2.08179 1.49683 1.09741 2.48152 1.09741 3.69134V4.79001C1.09741 5.99984 2.08179 6.98453 3.29193 6.98453H12.0731C13.2829 6.98453 14.2673 5.99984 14.2673 4.79001V3.69134C14.2673 2.48152 13.2829 1.49683 12.0731 1.49683H3.29193Z" />
<path d="M7.95783 25.6417H7.92329C6.25032 25.6417 4.9397 24.4064 4.9397 22.8292V7.53292C4.9397 7.22992 5.18556 6.98438 5.48825 6.98438H10.4271C10.7301 6.98438 10.976 7.22992 10.976 7.53292V22.8292C10.976 24.4064 9.64964 25.6417 7.95783 25.6417V25.6417ZM6.03711 8.08179V22.8292C6.03711 23.8067 6.84816 24.5442 7.92329 24.5442H7.95783C8.9017 24.5442 9.87822 23.9028 9.87822 22.8292V8.08179H6.03711Z" />
<path d="M3.42916 12.3344C3.14593 12.3344 2.90604 12.1168 2.8828 11.8295C2.85831 11.5278 3.08345 11.2634 3.38551 11.2386L11.891 10.5525C12.1906 10.5252 12.4578 10.7535 12.482 11.0558C12.5064 11.3576 12.2816 11.6223 11.9796 11.6468L3.47374 12.3329C3.45867 12.3338 3.4436 12.3344 3.42916 12.3344Z" />
<path d="M3.42916 16.1758C3.14593 16.1758 2.90604 15.9582 2.8828 15.6712C2.85831 15.3691 3.08345 15.1047 3.38551 15.0799L11.891 14.3942C12.1906 14.3715 12.4578 14.5945 12.482 14.8972C12.5064 15.1992 12.2816 15.4636 11.9796 15.4884L3.47374 16.1742C3.45867 16.1755 3.4436 16.1758 3.42916 16.1758Z" />
<path d="M3.42916 20.0167C3.14593 20.0167 2.90604 19.7991 2.8828 19.5118C2.85831 19.2101 3.08345 18.9454 3.38551 18.9209L11.891 18.2348C12.1906 18.2063 12.4578 18.4358 12.482 18.7382C12.5064 19.0399 12.2816 19.3043 11.9796 19.3291L3.47374 20.0152C3.45867 20.0161 3.4436 20.0167 3.42916 20.0167Z" />
<path d="M3.42916 23.3095C3.14593 23.3095 2.90604 23.0919 2.8828 22.8046C2.85831 22.5028 3.08345 22.2381 3.38551 22.2136L11.891 21.5276C12.1906 21.5006 12.4578 21.7285 12.482 22.0309C12.5064 22.3326 12.2816 22.597 11.9796 22.6218L3.47374 23.3076C3.45867 23.3089 3.4436 23.3095 3.42916 23.3095Z" />
<path d="M22.4983 19.1542C22.4057 19.1542 22.3137 19.1313 22.2302 19.0845L16.1939 15.7091C16.0206 15.6121 15.9132 15.429 15.9132 15.2299V8.47809C15.9132 8.27901 16.0209 8.09564 16.1939 7.99893L22.2302 4.62317C22.3966 4.52991 22.5994 4.52991 22.7661 4.62317L28.8021 7.99893C28.9757 8.09595 29.0828 8.27901 29.0828 8.47809V15.2299C29.0828 15.429 28.9754 15.6121 28.8021 15.7091L22.7661 19.0845C22.6826 19.1313 22.5903 19.1542 22.4983 19.1542ZM17.0106 14.9081L22.4983 17.9774L27.9857 14.9081V8.79993L22.4983 5.73094L17.0106 8.79993V14.9081ZM22.5809 15.2839C20.6897 15.2839 19.1511 13.7454 19.1511 11.8542C19.1511 9.96297 20.6897 8.42439 22.5809 8.42439C24.4721 8.42439 26.0103 9.96297 26.0103 11.8542C26.0103 13.7454 24.4721 15.2839 22.5809 15.2839ZM22.5809 9.52181C21.2948 9.52181 20.2485 10.5677 20.2485 11.8542C20.2485 13.1403 21.2948 14.1862 22.5809 14.1862C23.8667 14.1862 24.9129 13.1403 24.9129 11.8542C24.9129 10.5677 23.8667 9.52181 22.5809 9.52181Z" />
<path d="M26.7728 5.16103C26.6981 5.16103 26.6218 5.14596 26.5496 5.11331C26.2726 4.98959 26.1486 4.66524 26.272 4.38829L27.6149 1.38179C27.7383 1.10516 28.0627 0.980501 28.3396 1.10484C28.6166 1.22856 28.7406 1.55291 28.6172 1.82986L27.2743 4.83636C27.1829 5.04015 26.9826 5.16103 26.7728 5.16103V5.16103Z" />
<path d="M29.1936 6.24283C29.0215 6.24283 28.8519 6.16182 28.7449 6.01047C28.57 5.76367 28.6287 5.42142 28.8761 5.24589L31.1325 3.64954C31.3796 3.47496 31.7225 3.53274 31.8974 3.78111C32.0726 4.02791 32.0139 4.37047 31.7664 4.54568L29.5098 6.14203C29.4137 6.21017 29.3031 6.24283 29.1936 6.24283V6.24283Z" />
<path d="M24.3491 4.07933C24.0615 4.07933 23.8197 3.85545 23.8021 3.56438L23.6363 0.885995C23.6175 0.583618 23.8477 0.323316 24.15 0.30479C24.448 0.28595 24.713 0.516109 24.7316 0.818486L24.8974 3.49687C24.9159 3.79924 24.6857 4.05986 24.3833 4.07839C24.3717 4.07901 24.3607 4.07933 24.3491 4.07933V4.07933Z" />
</svg>
