<svg width="32" height="32" viewBox="0 0 32 32" fill="none" xmlns="http://www.w3.org/2000/svg">
<path d="M17.8227 10.8751C17.5392 10.8751 17.3097 10.6456 17.3097 10.3624V8.71826H13.2071V10.2988C13.2071 10.5819 12.9776 10.8114 12.6942 10.8114C12.411 10.8114 12.1815 10.5819 12.1815 10.2988V8.20532C12.1815 7.92186 12.411 7.69238 12.6942 7.69238H17.8227C18.1058 7.69238 18.3353 7.92186 18.3353 8.20532V10.3624C18.3353 10.6456 18.1058 10.8751 17.8227 10.8751Z" />
<path d="M8.17292 19.4876H4.48933C4.20616 19.4876 3.97668 19.2581 3.97668 18.9746V13.8464C3.97668 13.563 4.20616 13.3335 4.48933 13.3335H8.7017C8.98488 13.3335 9.21435 13.563 9.21435 13.8464C9.21435 14.1296 8.98488 14.3594 8.7017 14.3594H5.00227V18.462H8.17292C8.45609 18.462 8.68556 18.6915 8.68556 18.9746C8.68556 19.2581 8.45609 19.4876 8.17292 19.4876Z" />
<path d="M30.6437 22.0517H25.5155C25.2323 22.0517 25.0029 21.8222 25.0029 21.5387V19.4876H22.2301C21.9467 19.4876 21.7172 19.2581 21.7172 18.9746C21.7172 18.6915 21.9467 18.462 22.2301 18.462H25.5152C25.7987 18.462 26.0282 18.6915 26.0282 18.9746V21.0261H30.1308V16.4097C30.1308 15.2793 29.2111 14.3594 28.0811 14.3594H21.6306C21.3471 14.3594 21.1177 14.1296 21.1177 13.8464C21.1177 13.563 21.3471 13.3335 21.6306 13.3335H28.0811C29.7766 13.3335 31.1564 14.7133 31.1564 16.4091V21.5387C31.1567 21.8222 30.9272 22.0517 30.6437 22.0517V22.0517Z" />
<path d="M15.2019 24.6481C11.0436 24.6481 7.66077 21.2653 7.66077 17.1063C7.66077 12.9482 11.0436 9.56543 15.2019 9.56543C19.3606 9.56543 22.7437 12.9482 22.7437 17.1063C22.7437 21.265 19.3606 24.6481 15.2019 24.6481V24.6481ZM15.2019 10.5907C11.609 10.5907 8.68635 13.5134 8.68635 17.1063C8.68635 20.6989 11.609 23.6222 15.2019 23.6222C18.7949 23.6222 21.7178 20.6989 21.7178 17.1063C21.7178 13.5134 18.7949 10.5907 15.2019 10.5907V10.5907Z" />
<path d="M15.2025 22.2334C12.376 22.2334 10.0763 19.9336 10.0763 17.1066C10.0763 14.2802 12.376 11.9805 15.2025 11.9805C18.0295 11.9805 20.3292 14.2802 20.3292 17.1066C20.3292 17.3901 20.0997 17.6196 19.8163 17.6196C19.5331 17.6196 19.3036 17.3901 19.3036 17.1066C19.3036 14.8456 17.4634 13.0061 15.2025 13.0061C12.9415 13.0061 11.1019 14.8456 11.1019 17.1066C11.1019 19.3679 12.9415 21.2078 15.2025 21.2078C15.4859 21.2078 15.7154 21.4372 15.7154 21.7207C15.7154 22.0039 15.4859 22.2334 15.2025 22.2334V22.2334Z" />
<path d="M2.98716 22.0516H2.91497C1.80371 22.0516 0.899902 21.1478 0.899902 20.0366V13.8103C0.899902 12.699 1.80371 11.7949 2.91497 11.7949H2.98716C4.09843 11.7949 5.00223 12.699 5.00223 13.8103V20.0363C5.00252 21.1475 4.09843 22.0516 2.98716 22.0516V22.0516ZM2.91497 12.8208C2.36917 12.8208 1.92548 13.2642 1.92548 13.8103V20.0363C1.92548 20.5821 2.36917 21.0258 2.91497 21.0258H2.98716C3.53296 21.0258 3.97665 20.5821 3.97665 20.0363V13.8103C3.97665 13.2642 3.53296 12.8208 2.98716 12.8208H2.91497Z" />
<path d="M19.1049 3.58969H10.8996C9.91012 3.58969 9.10461 2.78448 9.10461 1.79499C9.10461 0.805501 9.91012 0 10.8996 0H19.1049C20.0944 0 20.8999 0.805501 20.8999 1.79499C20.8999 2.78448 20.0944 3.58969 19.1049 3.58969V3.58969ZM10.8996 1.02558C10.4756 1.02558 10.1302 1.37067 10.1302 1.79499C10.1302 2.21902 10.4756 2.5641 10.8996 2.5641H19.1049C19.5289 2.5641 19.874 2.21902 19.874 1.79499C19.874 1.37067 19.5289 1.02558 19.1049 1.02558H10.8996Z" />
<path d="M16.284 8.71805H14.2325C13.9493 8.71805 13.7198 8.48858 13.7198 8.20511V3.0769C13.7198 2.79344 13.9493 2.56396 14.2325 2.56396H16.284C16.5671 2.56396 16.7969 2.79344 16.7969 3.0769V8.20511C16.7969 8.48858 16.5671 8.71805 16.284 8.71805ZM14.7454 7.69217H15.771V3.58955H14.7454V7.69217Z" />
<path d="M28.335 31.9999C26.7719 31.9999 25.5004 30.7284 25.5004 29.1653C25.5004 27.7776 27.6534 24.2612 27.899 23.8651C28.0862 23.5625 28.5842 23.5625 28.7711 23.8651C29.0167 24.2612 31.1697 27.7776 31.1697 29.1653C31.1694 30.7284 29.8979 31.9999 28.335 31.9999ZM28.335 25.1325C27.5072 26.5548 26.526 28.4674 26.526 29.1655C26.526 30.1633 27.3373 30.9746 28.335 30.9746C29.3327 30.9746 30.1441 30.1633 30.1441 29.1655C30.1438 28.4674 29.1628 26.5548 28.335 25.1325V25.1325Z" />
<path d="M28.3234 30.5135C28.0399 30.5135 27.8104 30.284 27.8104 30.0006C27.8104 29.7174 28.0399 29.4879 28.3234 29.4879C28.4941 29.4879 28.6326 29.3491 28.6326 29.1789C28.6326 28.8955 28.8624 28.666 29.1456 28.666C29.4291 28.666 29.6585 28.8955 29.6585 29.1789C29.6585 29.9146 29.0596 30.5135 28.3234 30.5135Z" />
<path d="M30.1297 19.4875H25.0015C24.718 19.4875 24.4885 19.258 24.4885 18.9746C24.4885 18.6914 24.718 18.4619 25.0015 18.4619H30.1297C30.4128 18.4619 30.6423 18.6914 30.6423 18.9746C30.6423 19.258 30.4128 19.4875 30.1297 19.4875Z" />
</svg>
