<svg width="24" height="26" viewBox="0 0 24 26" fill="none" xmlns="http://www.w3.org/2000/svg">
<rect x="11" y="1" width="1.38461" height="23.5385" rx="0.692307" />
<rect x="23.5381" y="12" width="1.38461" height="23.5385" rx="0.692307" transform="rotate(90 23.5381 12)" />
</svg>
