<svg width="32" height="24" viewBox="0 0 32 24" fill="none" xmlns="http://www.w3.org/2000/svg">
<rect width="32" height="24" rx="2" fill="#8B8B8B"/>
<rect width="32" height="24" rx="2" fill="url(#paint0_linear)"/>
<path d="M14.0005 12C14.0005 10.8955 14.8957 9.99984 16.0002 9.99984C17.1048 9.99984 18.0005 10.8955 18.0005 12C18.0005 13.1045 17.1048 14.0002 16.0002 14.0002C14.8957 14.0002 14.0005 13.1045 14.0005 12ZM12.9192 12C12.9192 13.7016 14.2986 15.0809 16.0002 15.0809C17.7019 15.0809 19.0813 13.7016 19.0813 12C19.0813 10.2984 17.7019 8.91907 16.0002 8.91907C14.2986 8.91907 12.9192 10.2984 12.9192 12ZM18.4832 8.79691C18.4832 8.93931 18.5254 9.07854 18.6044 9.19697C18.6835 9.31541 18.7959 9.40774 18.9275 9.46228C19.059 9.51683 19.2038 9.53115 19.3435 9.50342C19.4831 9.4757 19.6115 9.40717 19.7122 9.30652C19.8129 9.20587 19.8816 9.0776 19.9094 8.93795C19.9372 8.79829 19.923 8.65352 19.8686 8.52193C19.8141 8.39035 19.7219 8.27786 19.6035 8.1987C19.4852 8.11954 19.346 8.07726 19.2036 8.0772H19.2033C19.0124 8.07729 18.8293 8.15314 18.6943 8.28808C18.5593 8.42302 18.4834 8.60603 18.4832 8.79691V8.79691ZM13.5761 16.8839C12.9911 16.8572 12.6732 16.7598 12.4619 16.6775C12.1817 16.5684 11.9819 16.4385 11.7717 16.2287C11.5616 16.0188 11.4315 15.8191 11.3229 15.539C11.2405 15.3278 11.1431 15.0097 11.1165 14.4248C11.0874 13.7923 11.0816 13.6023 11.0816 12C11.0816 10.3978 11.0879 10.2083 11.1165 9.57533C11.1431 8.99035 11.2413 8.67293 11.3229 8.4611C11.4319 8.18098 11.5618 7.9811 11.7717 7.77096C11.9816 7.56082 12.1813 7.43074 12.4619 7.32216C12.6731 7.23979 12.9911 7.14235 13.5761 7.11576C14.2086 7.08667 14.3986 7.08086 16.0002 7.08086C17.6019 7.08086 17.7921 7.08715 18.4251 7.11576C19.0101 7.1424 19.3275 7.24056 19.5393 7.32216C19.8195 7.43074 20.0193 7.5611 20.2295 7.77096C20.4397 7.98082 20.5693 8.18098 20.6783 8.4611C20.7607 8.6723 20.8581 8.99035 20.8847 9.57533C20.9138 10.2083 20.9196 10.3978 20.9196 12C20.9196 13.6023 20.9138 13.7918 20.8847 14.4248C20.8581 15.0097 20.7602 15.3277 20.6783 15.539C20.5693 15.8191 20.4394 16.019 20.2295 16.2287C20.0196 16.4383 19.8195 16.5684 19.5393 16.6775C19.3281 16.7598 19.0101 16.8573 18.4251 16.8839C17.7926 16.9129 17.6026 16.9188 16.0002 16.9188C14.3979 16.9188 14.2084 16.9129 13.5761 16.8839V16.8839ZM13.5265 6.03634C12.8877 6.06542 12.4512 6.1667 12.07 6.31502C11.6753 6.46819 11.3411 6.67368 11.0071 7.00709C10.6732 7.3405 10.4682 7.6752 10.315 8.06995C10.1667 8.45136 10.0654 8.88758 10.0363 9.52632C10.0068 10.1661 10 10.3706 10 12C10 13.6294 10.0068 13.8339 10.0363 14.4737C10.0654 15.1125 10.1667 15.5486 10.315 15.93C10.4682 16.3246 10.6732 16.6596 11.0071 16.9929C11.341 17.3262 11.6753 17.5314 12.07 17.685C12.4519 17.8333 12.8877 17.9346 13.5265 17.9637C14.1666 17.9928 14.3708 18 16.0002 18C17.6297 18 17.8342 17.9932 18.474 17.9637C19.1128 17.9346 19.549 17.8333 19.9304 17.685C20.325 17.5314 20.6594 17.3263 20.9934 16.9929C21.3273 16.6595 21.5318 16.3246 21.6854 15.93C21.8338 15.5486 21.9355 15.1124 21.9641 14.4737C21.9932 13.8335 22 13.6294 22 12C22 10.3706 21.9932 10.1661 21.9641 9.52632C21.9351 8.88754 21.8338 8.45112 21.6854 8.06995C21.5318 7.67544 21.3268 7.34102 20.9934 7.00709C20.6599 6.67315 20.325 6.46819 19.9309 6.31502C19.549 6.1667 19.1128 6.06494 18.4745 6.03634C17.8347 6.00725 17.6302 6 16.0007 6C14.3712 6 14.1666 6.00677 13.5265 6.03634Z" fill="white"/>
<defs>
<linearGradient id="paint0_linear" x1="1" y1="26" x2="20.0385" y2="-5.42861" gradientUnits="userSpaceOnUse">
<stop stop-color="#F7D472"/>
<stop offset="0.297462" stop-color="#F37B1D"/>
<stop offset="0.557292" stop-color="#D02873"/>
<stop offset="0.796875" stop-color="#922EBA"/>
<stop offset="1" stop-color="#4D58CF"/>
</linearGradient>
</defs>
</svg>
