<svg width="32" height="24" viewBox="0 0 32 24" fill="none" xmlns="http://www.w3.org/2000/svg">
<rect width="32" height="24" rx="2" fill="#FF0000"/>
<path d="M12 17L22 12L12 7V17Z" fill="white"/>
</svg>
