<svg width="20" height="20" viewBox="0 0 20 20" fill="none" xmlns="http://www.w3.org/2000/svg">
<path d="M3.33268 13.3332V3.33317H1.66602V1.6665H4.16602C4.38703 1.6665 4.59899 1.7543 4.75527 1.91058C4.91155 2.06686 4.99935 2.27882 4.99935 2.49984V12.4998H15.3643L17.031 5.83317H6.66602V4.1665H18.0993C18.226 4.16651 18.351 4.19539 18.4649 4.25095C18.5787 4.30651 18.6784 4.3873 18.7563 4.48716C18.8342 4.58702 18.8884 4.70334 18.9146 4.82726C18.9408 4.95119 18.9385 5.07946 18.9077 5.20234L16.8243 13.5357C16.7792 13.7159 16.6751 13.8758 16.5287 13.9901C16.3822 14.1044 16.2018 14.1665 16.016 14.1665H4.16602C3.945 14.1665 3.73304 14.0787 3.57676 13.9224C3.42048 13.7661 3.33268 13.5542 3.33268 13.3332ZM4.99935 19.1665C4.55732 19.1665 4.1334 18.9909 3.82084 18.6783C3.50828 18.3658 3.33268 17.9419 3.33268 17.4998C3.33268 17.0578 3.50828 16.6339 3.82084 16.3213C4.1334 16.0088 4.55732 15.8332 4.99935 15.8332C5.44138 15.8332 5.8653 16.0088 6.17786 16.3213C6.49042 16.6339 6.66602 17.0578 6.66602 17.4998C6.66602 17.9419 6.49042 18.3658 6.17786 18.6783C5.8653 18.9909 5.44138 19.1665 4.99935 19.1665ZM14.9993 19.1665C14.5573 19.1665 14.1334 18.9909 13.8208 18.6783C13.5083 18.3658 13.3327 17.9419 13.3327 17.4998C13.3327 17.0578 13.5083 16.6339 13.8208 16.3213C14.1334 16.0088 14.5573 15.8332 14.9993 15.8332C15.4414 15.8332 15.8653 16.0088 16.1779 16.3213C16.4904 16.6339 16.666 17.0578 16.666 17.4998C16.666 17.9419 16.4904 18.3658 16.1779 18.6783C15.8653 18.9909 15.4414 19.1665 14.9993 19.1665Z"/>
</svg>
