<svg width="18" height="18" viewBox="0 0 18 18" fill="none" xmlns="http://www.w3.org/2000/svg">
<path d="M16.3656 2.30733C17.3306 3.27217 17.8959 4.5657 17.9484 5.92931C18.001 7.29291 17.5369 8.6261 16.649 9.66233L16.6598 9.67316L16.3648 9.96733L15.1865 8.78816L15.2873 8.68816L15.384 8.57649C15.9766 7.8846 16.2971 7.00064 16.2856 6.08971C16.2741 5.17879 15.9314 4.3032 15.3215 3.62649L15.1873 3.48566C14.5421 2.84046 13.6839 2.45262 12.7733 2.39479C11.8627 2.33695 10.9622 2.6131 10.2406 3.17149L10.0906 3.29483L8.99979 4.23649L7.91063 3.29483C7.20709 2.68748 6.30308 2.36304 5.3739 2.38442C4.44472 2.4058 3.55659 2.77147 2.88172 3.41052C2.20686 4.04958 1.79336 4.91648 1.72141 5.84311C1.64945 6.76975 1.92417 7.69009 2.49229 8.42566L2.61479 8.57566L2.70979 8.68733L10.1773 16.1548L8.99979 17.3332L1.33979 9.67316L1.35063 9.66233C0.459953 8.62537 -0.0057224 7.28999 0.0470031 5.92405C0.0997285 4.55811 0.666955 3.2626 1.63491 2.29739C2.60287 1.33217 3.89998 0.768623 5.26606 0.719772C6.63215 0.670921 7.9662 1.14038 9.00063 2.03399C10.0362 1.14169 11.3708 0.673975 12.7368 0.724671C14.1028 0.775366 15.3991 1.34073 16.3656 2.30733ZM14.8331 10.6665V13.1665H17.3331V14.8332H14.8323L14.8331 17.3332H13.1665L13.1656 14.8332H10.6665V13.1665H13.1665V10.6665H14.8331Z" />
</svg>
