<svg width="16" height="17" viewBox="0 0 16 17" fill="none" xmlns="http://www.w3.org/2000/svg">
<path d="M15.4337 9.83564C15.4286 9.86383 15.4251 9.89228 15.4197 9.92048L15.3924 9.75893C15.4073 9.78408 15.4197 9.81024 15.4337 9.83564C15.5163 9.38505 15.5596 8.92379 15.5596 8.46279C15.5596 7.44045 15.3599 6.4486 14.9654 5.51491C14.5848 4.61296 14.0403 3.80297 13.346 3.10753C12.6528 2.41209 11.8442 1.86625 10.945 1.48474C10.0138 1.08978 9.02431 0.889631 8.00443 0.889631C7.52376 0.889631 7.04233 0.934842 6.57382 1.02501C6.57281 1.02526 6.57154 1.02526 6.57027 1.02552C6.59663 1.03949 6.62323 1.05193 6.64908 1.06641L6.49021 1.04152C6.51681 1.03644 6.54367 1.03085 6.57027 1.02552C5.92744 0.682877 5.20453 0.5 4.47275 0.5C3.27804 0.5 2.15479 0.966338 1.31 1.81342C0.465468 2.66024 0 3.78621 0 4.9838C0 5.74604 0.195613 6.49533 0.562768 7.1575C0.567583 7.13007 0.570877 7.10238 0.576198 7.07495L0.603563 7.2337C0.589374 7.20881 0.576958 7.1829 0.562768 7.1575C0.488273 7.5865 0.448998 8.0249 0.448998 8.46279C0.448998 9.48538 0.648666 10.477 1.04319 11.4109C1.42326 12.3131 1.96804 13.1226 2.66156 13.8181C3.35583 14.5135 4.16337 15.0601 5.06365 15.4406C5.99484 15.8363 6.98456 16.0367 8.00443 16.0367C8.44837 16.0367 8.89331 15.9961 9.32761 15.9189C9.30227 15.9046 9.27643 15.8917 9.25058 15.8767L9.41199 15.9051C9.38412 15.9105 9.35599 15.9138 9.32761 15.9189C9.9968 16.2983 10.7544 16.5 11.528 16.5C12.7225 16.5 13.8452 16.0344 14.69 15.1871C15.535 14.3408 16 13.2146 16 12.017C16 11.2522 15.8034 10.5003 15.4337 9.83564ZM8.03459 13.101C5.35048 13.101 4.14969 11.7782 4.14969 10.7869C4.14969 10.2784 4.52419 9.922 5.04034 9.922C6.18893 9.922 5.89146 11.5753 8.03459 11.5753C9.13174 11.5753 9.73759 10.9781 9.73759 10.367C9.73759 9.99947 9.55667 9.59206 8.83427 9.4135L6.44688 8.8161C4.52419 8.33274 4.17528 7.29085 4.17528 6.31144C4.17528 4.27794 6.0853 3.51443 7.87901 3.51443C9.53133 3.51443 11.4791 4.42983 11.4791 5.64978C11.4791 6.1725 11.0276 6.47654 10.5117 6.47654C9.53133 6.47654 9.71174 5.11639 7.73711 5.11639C6.75727 5.11639 6.21452 5.56113 6.21452 6.19765C6.21452 6.83289 6.98836 7.03584 7.66034 7.18925L9.42744 7.58244C11.3631 8.01474 11.8539 9.14756 11.8539 10.2146C11.8539 11.8671 10.5885 13.101 8.03459 13.101ZM9.25058 15.8767C9.27643 15.8917 9.30227 15.9046 9.32761 15.9189C9.35599 15.9138 9.38412 15.9105 9.41199 15.9051L9.25058 15.8767ZM15.4197 9.92048C15.4251 9.89228 15.4286 9.86383 15.4337 9.83564C15.4197 9.81024 15.4073 9.78408 15.3924 9.75893L15.4197 9.92048ZM0.576198 7.07495C0.570877 7.10238 0.567583 7.13007 0.562768 7.1575C0.576958 7.1829 0.589374 7.20881 0.603563 7.2337L0.576198 7.07495ZM6.64908 1.06641C6.62323 1.05193 6.59663 1.03949 6.57027 1.02552C6.54367 1.03085 6.51681 1.03644 6.49021 1.04152L6.64908 1.06641Z" fill="#00AFF0"/>
</svg>
