<svg width="32" height="24" viewBox="0 0 32 24" fill="none" xmlns="http://www.w3.org/2000/svg">
<rect width="32" height="24" rx="2" fill="#5181B8"/>
<path fill-rule="evenodd" clip-rule="evenodd" d="M22.3956 8.56026C22.4951 8.24752 22.3956 8.02007 21.9549 8.02007H20.4907C20.1211 8.02007 19.9505 8.21909 19.851 8.43232C19.851 8.43232 19.0976 10.2519 18.0457 11.4317C17.7045 11.7729 17.5482 11.8866 17.3634 11.8866C17.2638 11.8866 17.1359 11.7729 17.1359 11.4602V8.54604C17.1359 8.17644 17.0222 8.00586 16.7095 8.00586H14.4066C14.1791 8.00586 14.037 8.17644 14.037 8.34703C14.037 8.70241 14.5629 8.7877 14.6198 9.78277V11.9435C14.6198 12.4126 14.5345 12.4979 14.3497 12.4979C13.8522 12.4979 12.6439 10.6641 11.9189 8.57447C11.7767 8.16223 11.6346 8.00586 11.265 8.00586H9.7866C9.36014 8.00586 9.28906 8.20487 9.28906 8.4181C9.28906 8.80192 9.7866 10.7352 11.6062 13.294C12.8145 15.0424 14.5345 15.9806 16.084 15.9806C17.0222 15.9806 17.1359 15.7674 17.1359 15.412V14.09C17.1359 13.6636 17.2212 13.5925 17.5197 13.5925C17.733 13.5925 18.1168 13.7062 18.9839 14.5449C19.979 15.54 20.1496 15.9949 20.704 15.9949H22.1681C22.5946 15.9949 22.7936 15.7816 22.6799 15.3694C22.5519 14.9571 22.0686 14.3601 21.4431 13.6493C21.102 13.2513 20.5902 12.8106 20.4339 12.5974C20.2206 12.3131 20.2775 12.1994 20.4339 11.9435C20.4196 11.9435 22.2108 9.41317 22.3956 8.56026Z" fill="white"/>
</svg>
