<svg width="32" height="24" viewBox="0 0 32 24" fill="none" xmlns="http://www.w3.org/2000/svg">
<rect width="32" height="24" rx="2" fill="#0DC143"/>
<path d="M20.9782 7.04324C19.6812 5.71892 17.8883 5 16.0572 5C12.1662 5 9.03815 8.14054 9.07629 11.9622C9.07629 13.173 9.41962 14.3459 9.99183 15.4054L9 19L12.7003 18.0541C13.7302 18.6216 14.8747 18.8865 16.0191 18.8865C19.8719 18.8865 23 15.7459 23 11.9243C23 10.0703 22.2752 8.32973 20.9782 7.04324ZM16.0572 17.7135C15.0272 17.7135 13.9973 17.4486 13.1199 16.9189L12.891 16.8054L10.6785 17.373L11.2507 15.2162L11.0981 14.9892C9.41962 12.3027 10.2207 8.74595 12.9673 7.08108C15.7139 5.41622 19.2616 6.21081 20.9401 8.93514C22.6185 11.6595 21.8174 15.1784 19.0708 16.8432C18.1935 17.4108 17.1253 17.7135 16.0572 17.7135ZM19.4142 13.5135L18.9946 13.3243C18.9946 13.3243 18.3842 13.0595 18.0027 12.8703C17.9646 12.8703 17.9264 12.8324 17.8883 12.8324C17.7738 12.8324 17.6975 12.8703 17.6213 12.9081C17.6213 12.9081 17.5831 12.9459 17.049 13.5514C17.0109 13.627 16.9346 13.6649 16.8583 13.6649H16.8202C16.782 13.6649 16.7057 13.627 16.6676 13.5892L16.4768 13.5135C16.0572 13.3243 15.6757 13.0973 15.3706 12.7946C15.2943 12.7189 15.1798 12.6432 15.1035 12.5676C14.8365 12.3027 14.5695 12 14.3787 11.6595L14.3406 11.5838C14.3025 11.5459 14.3025 11.5081 14.2643 11.4324C14.2643 11.3568 14.2643 11.2811 14.3025 11.2432C14.3025 11.2432 14.455 11.0541 14.5695 10.9405C14.6458 10.8649 14.6839 10.7514 14.7602 10.6757C14.8365 10.5622 14.8747 10.4108 14.8365 10.2973C14.7984 10.1081 14.3406 9.08649 14.2262 8.85946C14.1499 8.74595 14.0736 8.70811 13.9591 8.67027H13.8447C13.7684 8.67027 13.654 8.67027 13.5395 8.67027C13.4632 8.67027 13.3869 8.70811 13.3106 8.70811L13.2725 8.74595C13.1962 8.78378 13.1199 8.85946 13.0436 8.8973C12.9673 8.97297 12.9292 9.04865 12.8529 9.12432C12.5858 9.46486 12.4332 9.88108 12.4332 10.2973C12.4332 10.6 12.5095 10.9027 12.624 11.1676L12.6621 11.2811C13.0054 12 13.4632 12.6432 14.0736 13.2108L14.2262 13.3622C14.3406 13.4757 14.455 13.5514 14.5313 13.6649C15.3324 14.3459 16.248 14.8378 17.2779 15.1027C17.3924 15.1405 17.545 15.1405 17.6594 15.1784C17.7738 15.1784 17.9264 15.1784 18.0409 15.1784C18.2316 15.1784 18.4605 15.1027 18.6131 15.027C18.7275 14.9514 18.8038 14.9514 18.8801 14.8757L18.9564 14.8C19.0327 14.7243 19.109 14.6865 19.1853 14.6108C19.2616 14.5351 19.3379 14.4595 19.376 14.3838C19.4523 14.2324 19.4905 14.0432 19.5286 13.8541C19.5286 13.7784 19.5286 13.6649 19.5286 13.5892C19.5286 13.5892 19.4905 13.5514 19.4142 13.5135Z" fill="white"/>
</svg>
